{
"idType": "I",
"phone": "75376929257",
"isDefault": "0",
"checkCode": "123456",
"custName": "渠和晓",
"cardType": "1",
"idNumber": "441425197705030271",
"follow": "8OCKHUT3K40359093039",
"cardNum": "fyUSmNH4AFPb9cfhxc5HUU2L4KaAI+Qn64zds+FXnk8="
}

